…
Now we will compute, both the group mean and the overall mean for each
instance (unique id):

``` r
sim_df <- sim_df %>% 
  group_by(id) %>% 
  mutate(obs_overall_mean = mean(value)) %>% 
  group_by(id, group) %>% 
  mutate(obs_group_mean = mean(value)) %>% 
  ungroup()

sim_df
```

    ## # A tibble: 150,000 x 5
    ##       id  value group obs_overall_mean obs_group_mean
    ##    <int>  <dbl> <chr>            <dbl>          <dbl>
    ##  1     1 -0.626 a               0.0825          0.132
    ##  2     1  0.184 a               0.0825          0.132
    ##  3     1 -0.836 a               0.0825          0.132
    ##  4     1  1.60  a               0.0825          0.132
    ##  5     1  0.330 a               0.0825          0.132
    ##  6     1 -0.820 a               0.0825          0.132
    ##  7     1  0.487 a               0.0825          0.132
    ##  8     1  0.738 a               0.0825          0.132
    ##  9     1  0.576 a               0.0825          0.132
    ## 10     1 -0.305 a               0.0825          0.132
    ## # … with 149,990 more rows

And now we’ll compute the residuals within groups and globally:

``` r
sim_df <- sim_df %>% 
  mutate(overall_residuals = value - obs_overall_mean,
         group_residuals = value - obs_group_mean) 

sim_df
```

    ## # A tibble: 150,000 x 7
    ##       id  value group obs_overall_mean obs_group_mean overall_residua…
    ##    <int>  <dbl> <chr>            <dbl>          <dbl>            <dbl>
    ##  1     1 -0.626 a               0.0825          0.132           -0.709
    ##  2     1  0.184 a               0.0825          0.132            0.101
    ##  3     1 -0.836 a               0.0825          0.132           -0.918
    ##  4     1  1.60  a               0.0825          0.132            1.51 
    ##  5     1  0.330 a               0.0825          0.132            0.247
    ##  6     1 -0.820 a               0.0825          0.132           -0.903
    ##  7     1  0.487 a               0.0825          0.132            0.405
    ##  8     1  0.738 a               0.0825          0.132            0.656
    ##  9     1  0.576 a               0.0825          0.132            0.493
    ## 10     1 -0.305 a               0.0825          0.132           -0.388
    ## # … with 149,990 more rows, and 1 more variable: group_residuals <dbl>
…
